2 Results | Feasibility and Acceptance of chatbots embedded in healthcare curricula:
…
This figure also shows how more than 6000 respondents first used the RLOs as instructed by their tutors on their course.

and if you’re browsing the internet for information on a healthcare topic and come across https://www.nottingham.ac.uk/helmopen/ :- You’re 1 of about 350 people finding about our resources from internet search.
Hopefully that grows, but it seems social networking is the key to sharing these tools.

A random sample of other sources are: Twitter, Aim higher days, Barnardos ignite learning, and, well, ‘a random Google photo;’- our online presence seems to be in many places!

UP TO HERE1

# A tibble: 24 × 3
# Groups:   Identity, dRLO [24]
   Identity                dRLO                                  n
   <chr>                   <chr>                             <int>
 1 HE student              It was a course learning resource    80
 2 HE student              Other                                 2
 3 HE student              Recommended by a colleague/peer       4
 4 HE student              Through HELM-Open                     1
 5 Healthcare professional General internet search               7
 6 Healthcare professional It was a course learning resource   131
 7 Healthcare professional Other                                 3
 8 Healthcare professional Recommended by a colleague/peer      10
 9 Other                   General internet search               8
10 Other                   It was a course learning resource    50
# … with 14 more rows
…
# A tibble: 24 × 3
# Groups:   Identity, dRLO [24]
   Identity                dRLO                                  n
   <chr>                   <chr>                             <int>
 1 HE student              It was a course learning resource    80
 2 HE student              Other                                 2
 3 HE student              Recommended by a colleague/peer       4
 4 HE student              Through HELM-Open                     1
 5 Healthcare professional General internet search               7
 6 Healthcare professional It was a course learning resource   131
 7 Healthcare professional Other                                 3
 8 Healthcare professional Recommended by a colleague/peer      10
 9 Other                   General internet search               8
10 Other                   It was a course learning resource    50
# … with 14 more rows
…
