3 Text Mining, Natural Language Processing, and Sentiment Analysis | Feasibility and Acceptance of chatbots embedded in healthcare curricula:
…
3.2.1 Stop words

The model then removed words with meaningless function. These are called stop words. Words like “the”, “of” and “to” are the most frequent words found, technically, but are of little interest to us.

## # A tibble: 1,149 × 2
##    word        lexicon
##    <chr>       <chr>  
##  1 a           SMART  
##  2 a's         SMART  
##  3 able        SMART  
##  4 about       SMART  
##  5 above       SMART  
##  6 according   SMART  
##  7 accordingly SMART  
##  8 across      SMART  
##  9 actually    SMART  
## 10 after       SMART  
## # … with 1,139 more rows
…
We also created a custom list of stop words for CEPEH. We know participants may mention other objects, and the list was as followed: found; chatbot; chatbots; presentation.

The data was ready for analysis by the model. We ordered it to find the most frequent words.

## # A tibble: 385 × 3
## # Groups:   doc_id [1]
##    doc_id word            n
##    <fct>  <chr>       <int>
##  1 1      information    11
##  2 1      helpful         8
##  3 1      understand      8
##  4 1      idea            7
##  5 1      ideas           7
##  6 1      lot             7
##  7 1      workshop        7
##  8 1      beginning       6
##  9 1      dont            6
## 10 1      medical         6
## # … with 375 more rows
…
Although the frequency is not high for each word, we are able to get a general picture of the sentiments, intensities, and concerns which would be immediately occurring when plotted.

3.2.2 3.2 Normalised frequency

A better way to understand this data is to normalise the frequency of occurrences in accordance with the source text. The raw text had 2827 words in total. Therefore we can mutate the ratios to suit.

## # A tibble: 1 × 2
## # Groups:   doc_id [1]
##   doc_id `sum(n)`
##   <fct>     <int>
## 1 1           656

## # A tibble: 383 × 2
##    word          pmw
##    <chr>       <dbl>
##  1 information  47.4
##  2 helpful      34.5
##  3 understand   34.5
##  4 idea         30.2
##  5 ideas        30.2
##  6 workshop     30.2
##  7 beginning    25.9
##  8 dont         25.9
##  9 medical      25.9
## 10 technology   25.9
## # … with 373 more rows
…
